4,"4-11-2018 7:37",1,0,1,0
2,"4-11-2018 7:44",1,0,1,0
5,"4-11-2018 7:44",1,0,1,0
3,"4-11-2018 7:46",1,0,1,0
1,"4-11-2018 7:48",1,0,1,0
5,"4-11-2018 18:02",1,0,1,0
3,"4-11-2018 18:06",1,0,1,0
4,"4-11-2018 18:09",1,0,1,0
2,"4-11-2018 18:10",1,0,1,0
2,"4-12-2018 7:47",1,0,1,0
5,"4-12-2018 8:03",1,0,1,0
3,"4-12-2018 8:07",1,0,1,0
4,"4-12-2018 11:33",1,0,1,0
4,"4-12-2018 18:18",1,0,1,0
2,"4-12-2018 18:25",1,0,1,0
5,"4-12-2018 18:26",1,0,1,0
3,"4-13-2018 7:55",1,0,1,0
4,"4-13-2018 7:55",1,0,1,0
1,"4-13-2018 7:55",1,0,1,0
2,"4-13-2018 7:56",1,0,1,0
5,"4-13-2018 8:35",1,0,1,0
1,"4-13-2018 18:07",1,0,1,0
4,"4-13-2018 18:07",1,0,1,0
5,"4-13-2018 18:09",1,0,1,0
2,"4-13-2018 18:10",1,0,1,0
1,"4-16-2018 7:45",1,0,1,0
2,"4-16-2018 7:46",1,0,1,0
3,"4-16-2018 7:46",1,0,1,0
5,"4-16-2018 8:57",1,0,1,0
2,"4-16-2018 18:14",1,0,1,0
3,"4-16-2018 18:14",1,1,1,0
1,"4-16-2018 18:15",1,0,1,0
5,"4-16-2018 18:18",1,0,1,0
3,"4-17-2018 7:38",1,0,1,0
1,"4-17-2018 7:38",1,0,1,0
2,"4-17-2018 7:39",1,0,1,0
4,"4-17-2018 7:42",1,0,1,0
5,"4-17-2018 7:56",1,0,1,0
5,"4-17-2018 18:04",1,0,1,0
3,"4-17-2018 18:10",1,1,1,0
4,"4-17-2018 18:18",1,0,1,0
2,"4-17-2018 18:19",1,0,1,0
2,"4-18-2018 7:44",1,0,1,0
1,"4-18-2018 7:45",1,0,1,0
4,"4-18-2018 7:58",1,0,1,0
5,"4-18-2018 8:09",1,0,1,0
3,"4-18-2018 8:29",1,0,1,0
5,"4-18-2018 18:07",1,0,1,0
3,"4-18-2018 18:19",1,1,1,0
2,"4-18-2018 18:30",1,0,1,0
2,"4-19-2018 7:32",1,0,1,0
4,"4-19-2018 7:37",1,0,1,
1,"4-19-2018 7:51",1,0,1,0
3,"4-19-2018 8:23",1,0,1,0
5,"4-19-2018 8:24",1,0,1,0
5,"4-19-2018 18:13",1,0,1,0
3,"4-19-2018 18:27",1,1,1,0
4,"4-19-2018 18:35",1,0,1,0
1,"4-19-2018 18:50",1,0,1,0
2,"4-19-2018 18:57",1,0,1,0
2,"4-20-2018 7:33",1,0,1,0
4,"4-20-2018 7:33",1,0,1,0
1,"4-20-2018 7:39",1,0,1,0
5,"4-20-2018 7:53",1,0,1,0
3,"4-20-2018 8:50",1,0,1,0
5,"4-20-2018 18:05",1,0,1,0
4,"4-20-2018 18:12",1,0,1,0
3,"4-20-2018 18:12",1,0,1,0
3,"4-20-2018 18:12",1,1,1,0
2,"4-20-2018 18:13",1,0,1,0
4,"4-21-2018 7:53",1,0,1,0
2,"4-21-2018 7:54",1,0,1,0
5,"4-21-2018 7:54",1,0,1,0
3,"4-21-2018 8:25",1,0,1,0
5,"4-21-2018 12:01",1,0,1,0
3,"4-21-2018 15:01",1,0,1,0
4,"4-21-2018 18:02",1,0,1,0
4,"4-21-2018 18:02",1,0,1,0
2,"4-21-2018 18:03",1,0,1,0
2,"4-23-2018 7:41",1,0,1,0
1,"4-23-2018 7:43",1,0,1,0
3,"4-23-2018 7:46",1,0,1,0
5,"4-23-2018 8:03",1,0,1,0
4,"4-23-2018 8:15",1,0,1,0
5,"4-23-2018 18:12",1,0,1,0
1,"4-23-2018 18:29",1,0,1,0
2,"4-23-2018 18:31",1,0,1,0
4,"4-24-2018 7:41",1,0,1,0
4,"4-24-2018 7:43",1,0,1,0
2,"4-24-2018 7:48",1,0,1,0
1,"4-24-2018 7:52",1,0,1,0
5,"4-24-2018 7:57",1,0,1,0
3,"4-24-2018 8:10",1,0,1,0
1,"4-24-2018 18:13",1,0,1,0
5,"4-24-2018 18:16",1,0,1,0
2,"4-24-2018 18:23",1,0,1,0
4,"4-24-2018 18:39",1,0,1,0
4,"4-25-2018 7:30",1,0,1,0
2,"4-25-2018 7:49",1,0,1,0
5,"4-25-2018 7:53",1,0,1,0
1,"4-25-2018 8:00",1,0,1,0
5,"4-25-2018 18:10",1,0,1,0
3,"4-25-2018 18:10",1,0,1,0
1,"4-25-2018 18:15",1,0,1,0
2,"4-25-2018 18:23",1,0,1,0
4,"4-25-2018 18:26",1,0,1,0
4,"4-25-2018 18:26",1,0,1,0
4,"4-25-2018 18:26",1,0,1,0
