{
  "globalDependencies": {
    "atom": "registry:env/atom#1.6.0+20160723033700",
    "mocha": "registry:dt/mocha#2.2.5+20170311011848",
    "node": "registry:env/node#0.10.0+20170213133316",
    "underscore": "registry:dt/underscore#1.8.3+20161123125004"
  },
  "dependencies": {
    "bluebird": "registry:npm/bluebird#3.5.0+20170314181206",
    "debug": "registry:npm/debug#2.0.0+20170504163145"
  }
}
